AM01 Final Project Group 4
…
Null Hypothesis \(H_0\) : $p_{SF.tech} = p_{notSF.tech} $

Alternative Hypothesis \(H_1\) : $p_{SF.tech} p_{notSF.tech} $

#we will examine if San Francisco holds a bigger proportion of tech employees than other cities

#find % of tech employees in SF
us_data %>% 
  filter(city == "San Francisco") %>% 
  count(industry) %>% 
  mutate(percent = n/sum(n)*100,
         total = sum(n)) %>%  
  arrange(desc(n))

## # A tibble: 22 x 4
##    industry                                 n percent total
##    <chr>                                <int>   <dbl> <int>
##  1 Computing or Tech                      243   48.2    504
##  2 Nonprofits                              49    9.72   504
##  3 Accounting, Banking & Finance           41    8.13   504
##  4 Marketing, Advertising & PR             19    3.77   504
##  5 Law                                     17    3.37   504
##  6 Engineering or Manufacturing            16    3.17   504
##  7 Health care                             15    2.98   504
##  8 Government and Public Administration    13    2.58   504
##  9 Insurance                               11    2.18   504
## 10 Recruitment or HR                       11    2.18   504
## # ... with 12 more rows

#find % of tech employees in US excluding SF  
us_data %>% 
  filter(city != "San Francisco") %>% 
  count(industry) %>% 
  mutate(percent = n/sum(n)*100,
         total = sum(n)) %>% 
  arrange(desc(n))

## # A tibble: 24 x 4
##    industry                                 n percent total
##    <chr>                                <int>   <dbl> <int>
##  1 Computing or Tech                     3174   16.7  18990
##  2 Education (Higher Education)          1952   10.3  18990
##  3 Nonprofits                            1944   10.2  18990
##  4 Health care                           1475    7.77 18990
##  5 Accounting, Banking & Finance         1321    6.96 18990
##  6 Government and Public Administration  1317    6.94 18990
##  7 Engineering or Manufacturing          1243    6.55 18990
##  8 Law                                    886    4.67 18990
##  9 Marketing, Advertising & PR            830    4.37 18990
## 10 Education (Primary/Secondary)          665    3.50 18990
## # ... with 14 more rows
…
state_salary <- us_data %>%
  group_by(state) %>% 
  summarize(
    #Count of people in each category
    count = n(),
    
    #Mean salary in each category
    mean_salary = mean(annual_salary)
  ) %>% 
  arrange(desc(mean_salary))

state_salary

## # A tibble: 52 x 3
##    state                count mean_salary
##    <chr>                <int>       <dbl>
##  1 California            2165     117499.
##  2 Washington            1006     109502.
##  3 New York              1866     105471.
##  4 District of Columbia   852     104303.
##  5 NA                     225      98712.
##  6 Massachusetts         1277      97377.
##  7 Virginia               651      94925.
##  8 Illinois              1031      92076.
##  9 Colorado               512      91883.
## 10 Maryland               463      90856.
## # ... with 42 more rows
…
